algo,inputs,seq
1,5,50324.136000000006
1,5,50324.136000000006
1,5,50324.136000000006
1,5,50324.136000000006
1,5,50324.136000000006
1,5,50324.136000000006
1,5,50324.136000000006
1,5,50324.136000000006
1,5,50324.136000000006
1,5,50324.136000000006
1,10,50324.136000000006
1,10,50324.136000000006
1,10,50324.136000000006
1,10,50324.136000000006
1,10,50324.136000000006
1,10,50324.136000000006
1,10,50324.136000000006
1,10,50324.136000000006
1,10,50324.136000000006
1,10,50324.136000000006
1,20,50324.136000000006
1,20,50324.136000000006
1,20,50324.136000000006
1,20,50324.136000000006
1,20,50324.136000000006
1,20,50324.136000000006
1,20,50324.136000000006
1,20,50324.136000000006
1,20,50324.136000000006
1,20,50324.136000000006
1,50,50324.136000000006
1,50,50324.136000000006
1,50,50324.136000000006
1,50,50324.136000000006
1,50,50324.136000000006
1,50,50324.136000000006
1,50,50324.136000000006
1,50,50324.136000000006
1,50,50324.136000000006
1,50,50324.136000000006
2,5,48612.79556834158
2,5,47664.2641839186
2,5,46679.75910286516
2,5,45997.68864688498
2,5,49251.717249456815
2,5,46187.238534741104
2,5,43974.15176467237
2,5,45282.48440871425
2,5,44885.54888655767
2,5,45024.44269883959
2,10,46650.64793479657
2,10,47073.709254208254
2,10,46964.15929047789
2,10,47027.99278599888
2,10,46890.500885200985
2,10,47919.22793898338
2,10,46777.05464955104
2,10,46749.497292930544
2,10,47256.844373775304
2,10,46252.82493711976
2,20,47662.56563822753
2,20,47061.21439192953
2,20,45265.512261557
2,20,46458.9004597887
2,20,47319.57214166145
2,20,46367.55664427298
2,20,46901.588934046165
2,20,46778.3321367746
2,20,46510.2614979181
2,20,47156.38477770768
2,50,46965.91196992763
2,50,46942.43852409225
2,50,46041.004737340685
2,50,46206.233856386345
2,50,46494.84162893483
2,50,47610.62771750368
2,50,46428.15432020388
2,50,47044.63393084637
2,50,47650.415372568845
2,50,46465.14755347091
3,5,50324.136000000006
3,5,50324.136000000006
3,5,50324.136000000006
3,5,50324.136000000006
3,5,50324.136000000006
3,5,50324.136000000006
3,5,50324.136000000006
3,5,50324.136000000006
3,5,50324.136000000006
3,5,50324.136000000006
3,10,50324.136000000006
3,10,50324.136000000006
3,10,50324.136000000006
3,10,50324.136000000006
3,10,50324.136000000006
3,10,50324.136000000006
3,10,50324.136000000006
3,10,50324.136000000006
3,10,50324.136000000006
3,10,50324.136000000006
3,20,50324.136000000006
3,20,50324.136000000006
3,20,50324.136000000006
3,20,50324.136000000006
3,20,50324.136000000006
3,20,50324.136000000006
3,20,50324.136000000006
3,20,50324.136000000006
3,20,50324.136000000006
3,20,50324.136000000006
3,50,50324.136000000006
3,50,50324.136000000006
3,50,50324.136000000006
3,50,50324.136000000006
3,50,50324.136000000006
3,50,50324.136000000006
3,50,50324.136000000006
3,50,50324.136000000006
3,50,50324.136000000006
3,50,50324.136000000006
