algo,inputs,seq
1,5,130.77195187867753
1,5,130.46558353284578
1,5,129.3899054248329
1,5,127.05344176509202
1,5,136.06190838665614
1,5,128.61751803763067
1,5,126.40416149394791
1,5,126.83494369051637
1,5,129.2396142574842
1,5,127.64014122389658
1,10,127.47931889476587
1,10,127.43066936744418
1,10,128.06702303336905
1,10,128.06458394387167
1,10,128.08442305063872
1,10,131.90510612457527
1,10,129.26964198064633
1,10,129.53936736242915
1,10,129.63854149982808
1,10,128.54279924006312
1,20,130.26684186665022
1,20,128.9837835258785
1,20,127.83469342496686
1,20,128.32557064046077
1,20,129.33853424094139
1,20,127.69103352715344
1,20,128.62531455231465
1,20,129.07526579872658
1,20,127.47211381456873
1,20,128.98768541079014
1,50,129.0057866068992
1,50,129.9507352938895
1,50,127.60917557990147
1,50,127.83006450088938
1,50,128.60370099619752
1,50,129.71498409455245
1,50,128.8283477631805
1,50,129.8004161020317
1,50,130.7245139358505
1,50,128.00907817579912
2,5,129.90464268964013
2,5,127.50096686203273
2,5,128.21986379034962
2,5,125.8254811657975
2,5,132.6900316805868
2,5,127.968368660339
2,5,125.75581282081079
2,5,129.0158918364265
2,5,127.76873365370497
2,5,126.38959555764986
2,10,126.33741315316234
2,10,127.90799027779707
2,10,127.79620776157881
2,10,127.95436274262555
2,10,126.5259829137185
2,10,128.00811714710352
2,10,126.66280949306115
2,10,126.97378062679947
2,10,128.7512735727445
2,10,126.50937047508408
2,20,128.6658781077779
2,20,128.2598430552739
2,20,126.56702661259429
2,20,126.71452042251256
2,20,127.39186195161638
2,20,126.31521207880209
2,20,128.0120617167009
2,20,126.6697385787705
2,20,126.23990717692409
2,20,127.29381907242811
2,50,126.77528139732225
2,50,127.27156742221801
2,50,125.86038293627843
2,50,126.03441481428581
2,50,126.7421961697069
2,50,128.64497046081854
2,50,126.7643159203315
2,50,127.26582618572797
2,50,127.49245260685092
2,50,126.69115476716851
3,5,145.6123450938286
3,5,146.2564631263107
3,5,146.75613045583876
3,5,146.538920206239
3,5,146.04747754607325
3,5,144.51914088934652
3,5,148.74210419680858
3,5,147.14567676854458
3,5,146.04747754607325
3,5,146.04747754607325
3,10,147.78179508146997
3,10,144.90602666272432
3,10,146.47706672430408
3,10,145.40253936541274
3,10,146.75613045583876
3,10,146.04747754607325
3,10,152.86645621059554
3,10,152.86645621059554
3,10,144.6804194772178
3,10,146.36031181813485
3,20,144.6804194772178
3,20,144.6804194772178
3,20,145.7879571312515
3,20,152.86645621059554
3,20,146.04747754607325
3,20,146.46377486946164
3,20,146.46377486946164
3,20,144.51914088934652
3,20,145.7604199068659
3,20,146.36031181813485
3,50,152.86645621059554
3,50,152.86645621059554
3,50,146.04747754607325
3,50,145.7879571312515
3,50,146.46377486946164
3,50,145.97933746500405
3,50,152.86645621059554
3,50,152.86645621059554
3,50,146.04747754607325
3,50,146.36031181813485
