run,makespan
1,4778
2,5118
3,4808
4,5330
5,6070
6,5248
7,5844
8,5968
9,5964
10,5008
11,5010
12,5582
13,5456
14,5558
15,5048
16,5934
17,5642
18,6040
19,5602
20,5354
21,5702
22,5046
23,4964
24,5016
25,5968
26,4896
27,4946
28,4846
29,5008
30,4876
31,6168
32,5738
33,4680
34,5004
35,5884
36,5958
37,6066
38,5848
39,5790
40,5012
41,5386
42,5606
43,5414
44,5688
45,5998
46,5344
47,5914
48,5336
49,4984
50,6004
51,4906
52,4878
53,4768
54,4632
55,4290
56,4266
57,4530
58,4188
59,4200
60,4850
61,4832
62,4870
63,4756
64,4674
65,4612
66,4286
67,4766
68,4606
69,4918
70,4916
71,4312
72,4684
73,5282
74,5186
75,5658
76,5494
77,5330
78,5580
79,5130
80,5588
81,4680
82,4686
83,5764
84,5554
85,5584
86,5748
87,4704
88,5674
