run,makespan
1,6662
2,7064
3,7058
4,7212
5,8334
6,7474
7,7750
8,8550
9,8390
10,7546
11,6336
12,7760
13,7266
14,8334
15,7652
16,8282
17,8294
18,8536
19,6842
20,7658
21,7058
22,6382
23,6728
24,6886
25,8218
26,7414
27,6258
28,7576
29,6278
30,7106
31,9120
32,7008
33,7338
34,7804
35,7596
36,7202
37,7418
38,8614
39,7146
40,6296
41,7516
42,6850
43,7602
44,8032
45,8688
46,8090
47,8280
48,6584
49,6270
50,8174
51,6154
52,6842
53,6438
54,6396
55,6566
56,6178
57,6672
58,5454
59,5396
60,6392
61,6108
62,7068
63,6744
64,5966
65,5870
66,6118
67,6602
68,6784
69,6116
70,7138
71,6148
72,6534
73,7484
74,7494
75,6956
76,7792
77,6592
78,8064
79,7658
80,8026
81,6598
82,6724
83,7918
84,6826
85,6768
86,7050
87,5918
88,7746
