run,makespan
1,582
2,870
3,552
4,1202
5,1644
6,584
7,1348
8,1682
9,1696
10,570
11,596
12,1320
13,1006
14,1346
15,648
16,1786
17,1428
18,1602
19,1008
20,972
21,1322
22,642
23,610
24,644
25,1618
26,638
27,636
28,650
29,652
30,588
31,1850
32,1508
33,608
34,590
35,1620
36,1716
37,1834
38,1640
39,1636
40,590
41,1256
42,1460
43,1008
44,1474
45,1774
46,1064
47,1696
48,970
49,608
50,1796
51,638
52,1226
53,1094
54,986
55,602
56,618
57,1064
58,590
59,604
60,1266
61,1290
62,1294
63,1264
64,1174
65,1028
66,598
67,1206
68,910
69,1250
70,1256
71,580
72,1070
73,908
74,1264
75,1554
76,1482
77,1294
78,1598
79,1184
80,1582
81,582
82,596
83,1558
84,1550
85,1506
86,1676
87,612
88,1528
