run,makespan
1,4041
2,4338
3,3804
4,3735
5,3789
6,4046
7,4064
8,4117
9,4117
10,4105
11,4055
12,4087
13,4079
14,4149
15,4079
16,4119
17,4105
18,4082
19,4155
20,8613
21,7740
22,6539
23,7955
24,6539
25,7456
26,9590
