run,makespan
1,4223
2,4201
3,4204
4,4242
5,4229
6,4268
7,4197
8,4221
9,4231
10,4224
11,4194
12,4229
13,4220
14,4790
15,4295
16,4252
17,4249
18,4299
19,4129
20,4065
21,4002
22,4051
23,4072
24,4087
25,4053
26,4036
