((0, 139.83333333333334, 4.594209467215935), (1.989323707150383, 209.75, 4.594209467215935), (1.989323707150383, 524.375, 4.594209467215935))

((0, 139.83333333333334, 4.594209467215935), (1.989323707150383, 209.75, 4.594209467215935), (1.989323707150383, 524.375, 4.594209467215935))

((0, 142.5, 4.594209467215935), (1.989323707150383, 213.75, 4.594209467215935), (1.989323707150383, 534.375, 4.594209467215935))

((0, 152.0, 4.594209467215935), (1.989323707150383, 228.0, 4.594209467215935), (1.989323707150383, 570.0, 4.594209467215935))

((0, 143.56666666666666, 4.594209467215935), (1.989323707150383, 215.35, 4.594209467215935), (1.989323707150383, 538.375, 4.594209467215935))

((0, 144.8, 4.594209467215935), (1.989323707150383, 217.20000000000002, 4.594209467215935), (1.989323707150383, 543.0, 4.594209467215935))

((0, 144.8, 4.594209467215935), (1.989323707150383, 217.20000000000002, 4.594209467215935), (1.989323707150383, 543.0, 4.594209467215935))

((0, 138.9, 4.594209467215935), (1.989323707150383, 208.35000000000002, 4.594209467215935), (1.989323707150383, 520.875, 4.594209467215935))

((0, 134.83333333333334, 4.594209467215935), (1.989323707150383, 202.25, 4.594209467215935), (1.989323707150383, 505.62500000000006, 4.594209467215935))

((0, 142.26666666666668, 4.594209467215935), (1.989323707150383, 213.40000000000003, 4.594209467215935), (1.989323707150383, 533.5000000000001, 4.594209467215935))